Source:;/Users/jasveer/Desktop/Third Year /EEE3088F/EEE3088F_Project/EEE3088F_Project.kicad_sch;;;;;;;;;;;;;;;;
Date:;Saturday, 12 March 2022 at 14:46:21;;;;;;;;;;;;;;;;
Tool:;Eeschema (6.0.2-0);;;;;;;;;;;;;;;;
Generator:;/Applications/KiCad/KiCad.app/Contents/SharedSupport/plugins/bom_csv_grouped_by_value.py;;;;;;;;;;;;;;;;
Component Count:;47;;;;;;;;;;;;;;;;
;;;;;;;;;;;;;;;;;
Individual Components:;;;;;;;;;;;;;;;;;
;;;;;;;;;;;;;;;;;
Item;Qty;Reference(s);Value;LibPart;Price ;Footprint;Datasheet;;;;;;;;;;
;;BT1;5V;Device:Battery_Cell;;;~;;;;;;;;;;
;;BT2;Li-Ion Cell;Device:Battery_Cell;;;~;;;;;;;;;;
;;C1;470uF;Device:C_Polarized;0.048;;~;;;;;;;;;;
;;C2;3.3nF;pspice:CAP;0.0067;;~;;;;;;;;;;
;;C3;220uF;Device:C_Polarized;0.2088;;~;;;;;;;;;;
;;C4;100uF;Device:C_Polarized;0.1299;;~;;;;;;;;;;
;;C5;100uF;Device:C_Polarized;0.1299;;~;;;;;;;;;;
;;Cin1;330uF;Device:C_Polarized;0.1594;;~;;;;;;;;;;
;;Cout1;220uF;Device:C_Polarized;0.2088;;~;;;;;;;;;;
;;D1;1N5408;pspice:DIODE;0.0257;;~;;;;;;;;;;
;;D2;1N5822;Diode:1N5822;0.0728;Diode_THT:D_DO-201AD_P15.24mm_Horizontal;http://www.vishay.com/docs/88526/1n5820.pdf;;;;;;;;;;
;;D3;1N5408;pspice:DIODE;0.0257;;~;;;;;;;;;;
;;D4;IN5408;pspice:DIODE;0.0257;;~;;;;;;;;;;
;;D5;1N5822;Device:D_Zener;0.0728;;~;;;;;;;;;;
;;D6;1N5408;pspice:DIODE;0.0257;;~;;;;;;;;;;
;;GREEN1;LED;Device:LED;0.0278;;~;;;;;;;;;;
;;J1;USB_A;Connector:USB_A;;; ~;;;;;;;;;;
;;JP1;Jumper_2_Bridged;Jumper:Jumper_2_Bridged;;;~;;;;;;;;;;
;;JP2;Jumper_2_Open;Jumper:Jumper_2_Open;;;~;;;;;;;;;;
;;JP3;Jumper_2_Bridged;Jumper:Jumper_2_Bridged;;;~;;;;;;;;;;
;;JP4;Jumper_2_Bridged;Jumper:Jumper_2_Bridged;;;~;;;;;;;;;;
;;JP5;Jumper_2_Bridged;Jumper:Jumper_2_Bridged;;;~;;;;;;;;;;
;;JP6;Jumper_2_Bridged;Jumper:Jumper_2_Bridged;;;~;;;;;;;;;;
;;JP7;Jumper_2_Bridged;Jumper:Jumper_2_Bridged;;;~;;;;;;;;;;
;;JP8;Jumper_2_Bridged;Jumper:Jumper_2_Bridged;;;~;;;;;;;;;;
;;JP9;Jumper_2_Bridged;Jumper:Jumper_2_Bridged;;;~;;;;;;;;;;
;;JP10;Jumper_2_Bridged;Jumper:Jumper_2_Bridged;;;~;;;;;;;;;;
;;L1;33uH;Device:L;0.0269;;~;;;;;;;;;;
;;L2;68uH;pspice:INDUCTOR;0.0858;;~;;;;;;;;;;
;;PChannelMosfet1;FQP27P06;Transistor_FET:FQP27P06;0.9649;Package_TO_SOT_THT:TO-220-3_Vertical;https://www.onsemi.com/pub/Collateral/FQP27P06-D.PDF;;;;;;;;;;
;;Q1;BC547;Transistor_BJT:BC547;0.1797;Package_TO_SOT_THT:TO-92_Inline;https://www.onsemi.com/pub/Collateral/BC550-D.pdf;;;;;;;;;;
;;Q2;BD140;Transistor_BJT:BD140;0.3443;Package_TO_SOT_THT:TO-126-3_Vertical;http://www.st.com/internet/com/TECHNICAL_RESOURCES/TECHNICAL_LITERATURE/DATASHEET/CD00001225.pdf;;;;;;;;;;
;;1,00 ZAR;1.5K;Device:R_US;0.001;;~;;;;;;;;;;
;;2,00 ZAR;1k;Device:R_US;0.0007;;~;;;;;;;;;;
;;3,00 ZAR;1k;Device:R;0.0007;;~;;;;;;;;;;
;;4,00 ZAR;1k;Device:R;0.0007;;~;;;;;;;;;;
;;5,00 ZAR;1k;Device:R;0.0007;;~;;;;;;;;;;
;;6,00 ZAR;1k;Device:R;0.0007;;~;;;;;;;;;;
;;7,00 ZAR;1k;Device:R;0.0007;;~;;;;;;;;;;
;;8,00 ZAR;220,00 ZAR;Device:R;0.0049;;~;;;;;;;;;;
;;9,00 ZAR;1k;Device:R_Small_US;0.0007;;~;;;;;;;;;;
;;RED1;LED;Device:LED;0.0191;;~;;;;;;;;;;
;;RV1;R_Potentiometer;Device:R_Potentiometer;1.9073;;~;;;;;;;;;;
;;StepDownVoltageRegulator1;LM2596S-3.3;Regulator_Switching:LM2596S-3.3;0.7363;Package_TO_SOT_SMD:TO-263-5_TabPin3;http://www.ti.com/lit/ds/symlink/lm2596.pdf;;;;;;;;;;
;;U1;LM2596S-3.3;Regulator_Switching:LM2596S-3.3;0.7363;Package_TO_SOT_SMD:TO-263-5_TabPin3;http://www.ti.com/lit/ds/symlink/lm2596.pdf;;;;;;;;;;
;;U2;LM358N/NOPB;LM358N_NOPB:LM358N{slash}NOPB;0.1326;DIP794W45P254L959H508Q8;;;;;;;;;;;
;;UnregulatedDCInput1;5V;Device:Battery;;;~;;;;;;;;;;
;;;;;;;;;;;;;;;;;
;;;;;;;;;;;;;;;;;
;;;;;;;;;;;;;;;;;
Collated Components:;;;;;;;;;;;;;;;;;
;;;;;;;;;;;;;;;;;
Item;Qty;Reference(s);Value;LibPart;;Footprint;Datasheet;;;;;;;;;;
1;1;BT1;5V;Device:Battery_Cell;;;~;;;;;;;;;;
2;1;BT2;Li-Ion Cell;Device:Battery_Cell;;;~;;;;;;;;;;
3;1;C1;470uF;Device:C_Polarized;0.048;;~;;;;;;;;;;
4;1;C2;3.3nF;pspice:CAP;0.0067;;~;;;;;;;;;;
5;2;C3, Cout1;220uF;Device:C_Polarized;0.2088;;~;;;;;;;;;;
6;2;C4, C5;100uF;Device:C_Polarized;0.1299;;~;;;;;;;;;;
7;1;Cin1;330uF;Device:C_Polarized;0.1594;;~;;;;;;;;;;
8;3;D1, D3, D6;1N5408;pspice:DIODE;0.0257;;~;;;;;;;;;;
9;1;D2;1N5822;Diode:1N5822;0.0728;Diode_THT:D_DO-201AD_P15.24mm_Horizontal;http://www.vishay.com/docs/88526/1n5820.pdf;;;;;;;;;;
10;1;D4;IN5408;pspice:DIODE;0.0257;;~;;;;;;;;;;
11;1;D5;1N5822;Device:D_Zener;0.0728;;~;;;;;;;;;;
12;2;GREEN1, RED1;LED;Device:LED;0.0278;;~;;;;;;;;;;
13;1;J1;USB_A;Connector:USB_A;;; ~;;;;;;;;;;
14;9;JP1, JP3, JP4, JP5, JP6, JP7, JP8, JP9, JP10;Jumper_2_Bridged;Jumper:Jumper_2_Bridged;;;~;;;;;;;;;;
15;1;JP2;Jumper_2_Open;Jumper:Jumper_2_Open;;;~;;;;;;;;;;
16;1;L1;33uH;Device:L;0.0269;;~;;;;;;;;;;
17;1;L2;68uH;pspice:INDUCTOR;0.0858;;~;;;;;;;;;;
18;1;PChannelMosfet1;FQP27P06;Transistor_FET:FQP27P06;0.9649;Package_TO_SOT_THT:TO-220-3_Vertical;https://www.onsemi.com/pub/Collateral/FQP27P06-D.PDF;;;;;;;;;;
19;1;Q1;BC547;Transistor_BJT:BC547;0.1797;Package_TO_SOT_THT:TO-92_Inline;https://www.onsemi.com/pub/Collateral/BC550-D.pdf;;;;;;;;;;
20;1;Q2;BD140;Transistor_BJT:BD140;0.3443;Package_TO_SOT_THT:TO-126-3_Vertical;http://www.st.com/internet/com/TECHNICAL_RESOURCES/TECHNICAL_LITERATURE/DATASHEET/CD00001225.pdf;;;;;;;;;;
21;1;1,00 ZAR;1.5K;Device:R_US;0.001;;~;;;;;;;;;;
22;1;2,00 ZAR;1k;Device:R_US;0.0007;;~;;;;;;;;;;
23;5;R3, R4, R5, R6, R7;1k;Device:R;0.0007;;~;;;;;;;;;;
24;1;8,00 ZAR;220,00 ZAR;Device:R;0.0049;;~;;;;;;;;;;
25;1;9,00 ZAR;1k;Device:R_Small_US;0.0007;;~;;;;;;;;;;
26;1;RV1;R_Potentiometer;Device:R_Potentiometer;1.9073;;~;;;;;;;;;;
27;2;StepDownVoltageRegulator1, U1;LM2596S-3.3;Regulator_Switching:LM2596S-3.3;0.7363;Package_TO_SOT_SMD:TO-263-5_TabPin3;http://www.ti.com/lit/ds/symlink/lm2596.pdf;;;;;;;;;;
28;1;U2;LM358N/NOPB;LM358N_NOPB:LM358N{slash}NOPB;0.1326;DIP794W45P254L959H508Q8;;;;;;;;;;;
29;1;UnregulatedDCInput1;5V;Device:Battery;;;~;;;;;;;;;;